%YAML 1.1
%TAG !u! tag:unity3d.com,2011:
--- !u!74 &7400000
AnimationClip:
  m_ObjectHideFlags: 0
  m_CorrespondingSourceObject: {fileID: 0}
  m_PrefabInstance: {fileID: 0}
  m_PrefabAsset: {fileID: 0}
  m_Name: Mole with Jacob
  serializedVersion: 7
  m_Legacy: 0
  m_Compressed: 0
  m_UseHighQualityCurve: 1
  m_RotationCurves: []
  m_CompressedRotationCurves: []
  m_EulerCurves:
  - curve:
      serializedVersion: 2
      m_Curve:
      - serializedVersion: 3
        time: 0
        value: {x: 0, y: 0, z: 0}
        inSlope: {x: 0, y: 0, z: 0}
        outSlope: {x: 0, y: 0, z: 0}
        tangentMode: 0
        weightedMode: 0
        inWeight: {x: 0.33333334, y: 0.33333334, z: 0.33333334}
        outWeight: {x: 0.33333334, y: 0.33333334, z: 0.33333334}
      m_PreInfinity: 2
      m_PostInfinity: 2
      m_RotationOrder: 4
    path: 
  m_PositionCurves:
  - curve:
      serializedVersion: 2
      m_Curve:
      - serializedVersion: 3
        time: 0
        value: {x: -13, y: -0.3, z: 1}
        inSlope: {x: 0, y: 0, z: 0}
        outSlope: {x: 0, y: 0, z: 0}
        tangentMode: 0
        weightedMode: 0
        inWeight: {x: 0.33333334, y: 0.33333334, z: 0.33333334}
        outWeight: {x: 0.33333334, y: 0.33333334, z: 0.33333334}
      - serializedVersion: 3
        time: 0.98333335
        value: {x: -13, y: -0.3, z: 1}
        inSlope: {x: 0, y: 0, z: 0}
        outSlope: {x: 0, y: 0, z: 0}
        tangentMode: 0
        weightedMode: 0
        inWeight: {x: 0.33333334, y: 0.33333334, z: 0.33333334}
        outWeight: {x: 0.33333334, y: 0.33333334, z: 0.33333334}
      - serializedVersion: 3
        time: 1.5
        value: {x: -11, y: -0.5, z: 1}
        inSlope: {x: 3.9193661, y: -0.94666666, z: 0}
        outSlope: {x: 3.9193661, y: -0.94666666, z: 0}
        tangentMode: 0
        weightedMode: 0
        inWeight: {x: 0.33333334, y: 0.33333334, z: 0.33333334}
        outWeight: {x: 0.33333334, y: 0.33333334, z: 0.33333334}
      - serializedVersion: 3
        time: 1.7333333
        value: {x: -10.060475, y: -1.01, z: 1}
        inSlope: {x: 3.4265263, y: -1.8187501, z: 0}
        outSlope: {x: 3.4265263, y: -1.8187501, z: 0}
        tangentMode: 0
        weightedMode: 0
        inWeight: {x: 0.33333334, y: 0.33333334, z: 0.33333334}
        outWeight: {x: 0.33333334, y: 0.33333334, z: 0.33333334}
      - serializedVersion: 3
        time: 2.5666666
        value: {x: -7.345039, y: -2.44, z: 1}
        inSlope: {x: 3.3816457, y: -0.07590958, z: 0}
        outSlope: {x: 3.3816457, y: -0.07590958, z: 0}
        tangentMode: 0
        weightedMode: 0
        inWeight: {x: 0.33333334, y: 0.33333334, z: 0.33333334}
        outWeight: {x: 0.33333334, y: 0.33333334, z: 0.33333334}
      - serializedVersion: 3
        time: 4.25
        value: {x: -1.55, y: -2.4877598, z: 1}
        inSlope: {x: 5.627907, y: -0.049194615, z: 0}
        outSlope: {x: 5.627907, y: -0.049194615, z: 0}
        tangentMode: 0
        weightedMode: 0
        inWeight: {x: 0.33333334, y: 0.33333334, z: 0.33333334}
        outWeight: {x: 0.33333334, y: 0.33333334, z: 0.33333334}
      - serializedVersion: 3
        time: 6.45
        value: {x: 14.51, y: -6.71, z: 1}
        inSlope: {x: 0, y: 0, z: 0}
        outSlope: {x: 0, y: 0, z: 0}
        tangentMode: 0
        weightedMode: 0
        inWeight: {x: 0.33333334, y: 0.33333334, z: 0.33333334}
        outWeight: {x: 0.33333334, y: 0.33333334, z: 0.33333334}
      m_PreInfinity: 2
      m_PostInfinity: 2
      m_RotationOrder: 4
    path: 
  m_ScaleCurves: []
  m_FloatCurves: []
  m_PPtrCurves:
  - serializedVersion: 2
    curve:
    - time: 0
      value: {fileID: 21300000, guid: dfd5f3d8505edaa4fb4841b0bab1a234, type: 3}
    - time: 1
      value: {fileID: 21300000, guid: dfd5f3d8505edaa4fb4841b0bab1a234, type: 3}
    - time: 1.05
      value: {fileID: 739744650, guid: 3280331212dd5cf46b29cd4fe6db3f86, type: 3}
    - time: 1.2
      value: {fileID: -1677472047, guid: 3280331212dd5cf46b29cd4fe6db3f86, type: 3}
    - time: 1.35
      value: {fileID: -148828807, guid: 3280331212dd5cf46b29cd4fe6db3f86, type: 3}
    - time: 1.5
      value: {fileID: -2051536262, guid: 3280331212dd5cf46b29cd4fe6db3f86, type: 3}
    - time: 1.65
      value: {fileID: -1943951699, guid: 3280331212dd5cf46b29cd4fe6db3f86, type: 3}
    - time: 1.8
      value: {fileID: 1080794729, guid: 3280331212dd5cf46b29cd4fe6db3f86, type: 3}
    - time: 1.95
      value: {fileID: 739744650, guid: 3280331212dd5cf46b29cd4fe6db3f86, type: 3}
    - time: 2.1
      value: {fileID: -1677472047, guid: 3280331212dd5cf46b29cd4fe6db3f86, type: 3}
    - time: 2.25
      value: {fileID: -148828807, guid: 3280331212dd5cf46b29cd4fe6db3f86, type: 3}
    - time: 2.4
      value: {fileID: -2051536262, guid: 3280331212dd5cf46b29cd4fe6db3f86, type: 3}
    - time: 2.55
      value: {fileID: -1943951699, guid: 3280331212dd5cf46b29cd4fe6db3f86, type: 3}
    - time: 2.7
      value: {fileID: 1080794729, guid: 3280331212dd5cf46b29cd4fe6db3f86, type: 3}
    - time: 2.85
      value: {fileID: 739744650, guid: 3280331212dd5cf46b29cd4fe6db3f86, type: 3}
    - time: 3
      value: {fileID: -1677472047, guid: 3280331212dd5cf46b29cd4fe6db3f86, type: 3}
    - time: 3.15
      value: {fileID: -148828807, guid: 3280331212dd5cf46b29cd4fe6db3f86, type: 3}
    - time: 3.3
      value: {fileID: -2051536262, guid: 3280331212dd5cf46b29cd4fe6db3f86, type: 3}
    - time: 3.45
      value: {fileID: -1943951699, guid: 3280331212dd5cf46b29cd4fe6db3f86, type: 3}
    - time: 3.6
      value: {fileID: 1080794729, guid: 3280331212dd5cf46b29cd4fe6db3f86, type: 3}
    - time: 3.75
      value: {fileID: 739744650, guid: 3280331212dd5cf46b29cd4fe6db3f86, type: 3}
    - time: 3.9
      value: {fileID: -1677472047, guid: 3280331212dd5cf46b29cd4fe6db3f86, type: 3}
    - time: 4.05
      value: {fileID: -148828807, guid: 3280331212dd5cf46b29cd4fe6db3f86, type: 3}
    - time: 4.2
      value: {fileID: -2051536262, guid: 3280331212dd5cf46b29cd4fe6db3f86, type: 3}
    - time: 4.35
      value: {fileID: -1943951699, guid: 3280331212dd5cf46b29cd4fe6db3f86, type: 3}
    - time: 4.5
      value: {fileID: 1080794729, guid: 3280331212dd5cf46b29cd4fe6db3f86, type: 3}
    - time: 4.65
      value: {fileID: 739744650, guid: 3280331212dd5cf46b29cd4fe6db3f86, type: 3}
    - time: 4.8
      value: {fileID: -1677472047, guid: 3280331212dd5cf46b29cd4fe6db3f86, type: 3}
    - time: 4.95
      value: {fileID: -148828807, guid: 3280331212dd5cf46b29cd4fe6db3f86, type: 3}
    - time: 5.1
      value: {fileID: -2051536262, guid: 3280331212dd5cf46b29cd4fe6db3f86, type: 3}
    - time: 5.25
      value: {fileID: -1943951699, guid: 3280331212dd5cf46b29cd4fe6db3f86, type: 3}
    - time: 5.4
      value: {fileID: 1080794729, guid: 3280331212dd5cf46b29cd4fe6db3f86, type: 3}
    - time: 5.55
      value: {fileID: 739744650, guid: 3280331212dd5cf46b29cd4fe6db3f86, type: 3}
    - time: 5.7
      value: {fileID: -1677472047, guid: 3280331212dd5cf46b29cd4fe6db3f86, type: 3}
    - time: 5.85
      value: {fileID: -148828807, guid: 3280331212dd5cf46b29cd4fe6db3f86, type: 3}
    - time: 6
      value: {fileID: -2051536262, guid: 3280331212dd5cf46b29cd4fe6db3f86, type: 3}
    - time: 6.15
      value: {fileID: -1943951699, guid: 3280331212dd5cf46b29cd4fe6db3f86, type: 3}
    - time: 6.3
      value: {fileID: 1080794729, guid: 3280331212dd5cf46b29cd4fe6db3f86, type: 3}
    - time: 6.45
      value: {fileID: 739744650, guid: 3280331212dd5cf46b29cd4fe6db3f86, type: 3}
    attribute: m_Sprite
    path: 
    classID: 212
    script: {fileID: 0}
    flags: 2
  m_SampleRate: 60
  m_WrapMode: 0
  m_Bounds:
    m_Center: {x: 0, y: 0, z: 0}
    m_Extent: {x: 0, y: 0, z: 0}
  m_ClipBindingConstant:
    genericBindings:
    - serializedVersion: 2
      path: 0
      attribute: 1
      script: {fileID: 0}
      typeID: 4
      customType: 0
      isPPtrCurve: 0
      isIntCurve: 0
      isSerializeReferenceCurve: 0
    - serializedVersion: 2
      path: 0
      attribute: 0
      script: {fileID: 0}
      typeID: 212
      customType: 23
      isPPtrCurve: 1
      isIntCurve: 0
      isSerializeReferenceCurve: 0
    - serializedVersion: 2
      path: 0
      attribute: 4
      script: {fileID: 0}
      typeID: 4
      customType: 4
      isPPtrCurve: 0
      isIntCurve: 0
      isSerializeReferenceCurve: 0
    pptrCurveMapping:
    - {fileID: 21300000, guid: dfd5f3d8505edaa4fb4841b0bab1a234, type: 3}
    - {fileID: 21300000, guid: dfd5f3d8505edaa4fb4841b0bab1a234, type: 3}
    - {fileID: 739744650, guid: 3280331212dd5cf46b29cd4fe6db3f86, type: 3}
    - {fileID: -1677472047, guid: 3280331212dd5cf46b29cd4fe6db3f86, type: 3}
    - {fileID: -148828807, guid: 3280331212dd5cf46b29cd4fe6db3f86, type: 3}
    - {fileID: -2051536262, guid: 3280331212dd5cf46b29cd4fe6db3f86, type: 3}
    - {fileID: -1943951699, guid: 3280331212dd5cf46b29cd4fe6db3f86, type: 3}
    - {fileID: 1080794729, guid: 3280331212dd5cf46b29cd4fe6db3f86, type: 3}
    - {fileID: 739744650, guid: 3280331212dd5cf46b29cd4fe6db3f86, type: 3}
    - {fileID: -1677472047, guid: 3280331212dd5cf46b29cd4fe6db3f86, type: 3}
    - {fileID: -148828807, guid: 3280331212dd5cf46b29cd4fe6db3f86, type: 3}
    - {fileID: -2051536262, guid: 3280331212dd5cf46b29cd4fe6db3f86, type: 3}
    - {fileID: -1943951699, guid: 3280331212dd5cf46b29cd4fe6db3f86, type: 3}
    - {fileID: 1080794729, guid: 3280331212dd5cf46b29cd4fe6db3f86, type: 3}
    - {fileID: 739744650, guid: 3280331212dd5cf46b29cd4fe6db3f86, type: 3}
    - {fileID: -1677472047, guid: 3280331212dd5cf46b29cd4fe6db3f86, type: 3}
    - {fileID: -148828807, guid: 3280331212dd5cf46b29cd4fe6db3f86, type: 3}
    - {fileID: -2051536262, guid: 3280331212dd5cf46b29cd4fe6db3f86, type: 3}
    - {fileID: -1943951699, guid: 3280331212dd5cf46b29cd4fe6db3f86, type: 3}
    - {fileID: 1080794729, guid: 3280331212dd5cf46b29cd4fe6db3f86, type: 3}
    - {fileID: 739744650, guid: 3280331212dd5cf46b29cd4fe6db3f86, type: 3}
    - {fileID: -1677472047, guid: 3280331212dd5cf46b29cd4fe6db3f86, type: 3}
    - {fileID: -148828807, guid: 3280331212dd5cf46b29cd4fe6db3f86, type: 3}
    - {fileID: -2051536262, guid: 3280331212dd5cf46b29cd4fe6db3f86, type: 3}
    - {fileID: -1943951699, guid: 3280331212dd5cf46b29cd4fe6db3f86, type: 3}
    - {fileID: 1080794729, guid: 3280331212dd5cf46b29cd4fe6db3f86, type: 3}
    - {fileID: 739744650, guid: 3280331212dd5cf46b29cd4fe6db3f86, type: 3}
    - {fileID: -1677472047, guid: 3280331212dd5cf46b29cd4fe6db3f86, type: 3}
    - {fileID: -148828807, guid: 3280331212dd5cf46b29cd4fe6db3f86, type: 3}
    - {fileID: -2051536262, guid: 3280331212dd5cf46b29cd4fe6db3f86, type: 3}
    - {fileID: -1943951699, guid: 3280331212dd5cf46b29cd4fe6db3f86, type: 3}
    - {fileID: 1080794729, guid: 3280331212dd5cf46b29cd4fe6db3f86, type: 3}
    - {fileID: 739744650, guid: 3280331212dd5cf46b29cd4fe6db3f86, type: 3}
    - {fileID: -1677472047, guid: 3280331212dd5cf46b29cd4fe6db3f86, type: 3}
    - {fileID: -148828807, guid: 3280331212dd5cf46b29cd4fe6db3f86, type: 3}
    - {fileID: -2051536262, guid: 3280331212dd5cf46b29cd4fe6db3f86, type: 3}
    - {fileID: -1943951699, guid: 3280331212dd5cf46b29cd4fe6db3f86, type: 3}
    - {fileID: 1080794729, guid: 3280331212dd5cf46b29cd4fe6db3f86, type: 3}
    - {fileID: 739744650, guid: 3280331212dd5cf46b29cd4fe6db3f86, type: 3}
  m_AnimationClipSettings:
    serializedVersion: 2
    m_AdditiveReferencePoseClip: {fileID: 0}
    m_AdditiveReferencePoseTime: 0
    m_StartTime: 0
    m_StopTime: 6.4666667
    m_OrientationOffsetY: 0
    m_Level: 0
    m_CycleOffset: 0
    m_HasAdditiveReferencePose: 0
    m_LoopTime: 0
    m_LoopBlend: 0
    m_LoopBlendOrientation: 0
    m_LoopBlendPositionY: 0
    m_LoopBlendPositionXZ: 0
    m_KeepOriginalOrientation: 0
    m_KeepOriginalPositionY: 1
    m_KeepOriginalPositionXZ: 0
    m_HeightFromFeet: 0
    m_Mirror: 0
  m_EditorCurves:
  - serializedVersion: 2
    curve:
      serializedVersion: 2
      m_Curve:
      - serializedVersion: 3
        time: 0
        value: 0
        inSlope: 0
        outSlope: 0
        tangentMode: 136
        weightedMode: 0
        inWeight: 0.33333334
        outWeight: 0.33333334
      m_PreInfinity: 2
      m_PostInfinity: 2
      m_RotationOrder: 4
    attribute: localEulerAnglesRaw.x
    path: 
    classID: 4
    script: {fileID: 0}
    flags: 0
  - serializedVersion: 2
    curve:
      serializedVersion: 2
      m_Curve:
      - serializedVersion: 3
        time: 0
        value: 0
        inSlope: 0
        outSlope: 0
        tangentMode: 136
        weightedMode: 0
        inWeight: 0.33333334
        outWeight: 0.33333334
      m_PreInfinity: 2
      m_PostInfinity: 2
      m_RotationOrder: 4
    attribute: localEulerAnglesRaw.y
    path: 
    classID: 4
    script: {fileID: 0}
    flags: 0
  - serializedVersion: 2
    curve:
      serializedVersion: 2
      m_Curve:
      - serializedVersion: 3
        time: 0
        value: 0
        inSlope: 0
        outSlope: 0
        tangentMode: 136
        weightedMode: 0
        inWeight: 0.33333334
        outWeight: 0.33333334
      m_PreInfinity: 2
      m_PostInfinity: 2
      m_RotationOrder: 4
    attribute: localEulerAnglesRaw.z
    path: 
    classID: 4
    script: {fileID: 0}
    flags: 0
  - serializedVersion: 2
    curve:
      serializedVersion: 2
      m_Curve:
      - serializedVersion: 3
        time: 0
        value: -13
        inSlope: 0
        outSlope: 0
        tangentMode: 136
        weightedMode: 0
        inWeight: 0.33333334
        outWeight: 0.33333334
      - serializedVersion: 3
        time: 0.98333335
        value: -13
        inSlope: 0
        outSlope: 0
        tangentMode: 136
        weightedMode: 0
        inWeight: 0.33333334
        outWeight: 0.33333334
      - serializedVersion: 3
        time: 1.5
        value: -11
        inSlope: 3.9193661
        outSlope: 3.9193661
        tangentMode: 136
        weightedMode: 0
        inWeight: 0.33333334
        outWeight: 0.33333334
      - serializedVersion: 3
        time: 1.7333333
        value: -10.060475
        inSlope: 3.4265263
        outSlope: 3.4265263
        tangentMode: 136
        weightedMode: 0
        inWeight: 0.33333334
        outWeight: 0.33333334
      - serializedVersion: 3
        time: 2.5666666
        value: -7.345039
        inSlope: 3.3816457
        outSlope: 3.3816457
        tangentMode: 136
        weightedMode: 0
        inWeight: 0.33333334
        outWeight: 0.33333334
      - serializedVersion: 3
        time: 4.25
        value: -1.55
        inSlope: 5.627907
        outSlope: 5.627907
        tangentMode: 136
        weightedMode: 0
        inWeight: 0.33333334
        outWeight: 0.33333334
      - serializedVersion: 3
        time: 6.45
        value: 14.51
        inSlope: 0
        outSlope: 0
        tangentMode: 136
        weightedMode: 0
        inWeight: 0.33333334
        outWeight: 0.33333334
      m_PreInfinity: 2
      m_PostInfinity: 2
      m_RotationOrder: 4
    attribute: m_LocalPosition.x
    path: 
    classID: 4
    script: {fileID: 0}
    flags: 0
  - serializedVersion: 2
    curve:
      serializedVersion: 2
      m_Curve:
      - serializedVersion: 3
        time: 0
        value: -0.3
        inSlope: 0
        outSlope: 0
        tangentMode: 136
        weightedMode: 0
        inWeight: 0.33333334
        outWeight: 0.33333334
      - serializedVersion: 3
        time: 0.98333335
        value: -0.3
        inSlope: 0
        outSlope: 0
        tangentMode: 136
        weightedMode: 0
        inWeight: 0.33333334
        outWeight: 0.33333334
      - serializedVersion: 3
        time: 1.5
        value: -0.5
        inSlope: -0.94666666
        outSlope: -0.94666666
        tangentMode: 136
        weightedMode: 0
        inWeight: 0.33333334
        outWeight: 0.33333334
      - serializedVersion: 3
        time: 1.7333333
        value: -1.01
        inSlope: -1.8187501
        outSlope: -1.8187501
        tangentMode: 136
        weightedMode: 0
        inWeight: 0.33333334
        outWeight: 0.33333334
      - serializedVersion: 3
        time: 2.5666666
        value: -2.44
        inSlope: -0.07590958
        outSlope: -0.07590958
        tangentMode: 136
        weightedMode: 0
        inWeight: 0.33333334
        outWeight: 0.33333334
      - serializedVersion: 3
        time: 4.25
        value: -2.4877598
        inSlope: -0.049194615
        outSlope: -0.049194615
        tangentMode: 136
        weightedMode: 0
        inWeight: 0.33333334
        outWeight: 0.33333334
      - serializedVersion: 3
        time: 6.45
        value: -6.71
        inSlope: 0
        outSlope: 0
        tangentMode: 136
        weightedMode: 0
        inWeight: 0.33333334
        outWeight: 0.33333334
      m_PreInfinity: 2
      m_PostInfinity: 2
      m_RotationOrder: 4
    attribute: m_LocalPosition.y
    path: 
    classID: 4
    script: {fileID: 0}
    flags: 0
  - serializedVersion: 2
    curve:
      serializedVersion: 2
      m_Curve:
      - serializedVersion: 3
        time: 0
        value: 1
        inSlope: 0
        outSlope: 0
        tangentMode: 136
        weightedMode: 0
        inWeight: 0.33333334
        outWeight: 0.33333334
      - serializedVersion: 3
        time: 0.98333335
        value: 1
        inSlope: 0
        outSlope: 0
        tangentMode: 136
        weightedMode: 0
        inWeight: 0.33333334
        outWeight: 0.33333334
      - serializedVersion: 3
        time: 1.5
        value: 1
        inSlope: 0
        outSlope: 0
        tangentMode: 136
        weightedMode: 0
        inWeight: 0.33333334
        outWeight: 0.33333334
      - serializedVersion: 3
        time: 1.7333333
        value: 1
        inSlope: 0
        outSlope: 0
        tangentMode: 136
        weightedMode: 0
        inWeight: 0.33333334
        outWeight: 0.33333334
      - serializedVersion: 3
        time: 2.5666666
        value: 1
        inSlope: 0
        outSlope: 0
        tangentMode: 136
        weightedMode: 0
        inWeight: 0.33333334
        outWeight: 0.33333334
      - serializedVersion: 3
        time: 4.25
        value: 1
        inSlope: 0
        outSlope: 0
        tangentMode: 136
        weightedMode: 0
        inWeight: 0.33333334
        outWeight: 0.33333334
      - serializedVersion: 3
        time: 6.45
        value: 1
        inSlope: 0
        outSlope: 0
        tangentMode: 136
        weightedMode: 0
        inWeight: 0.33333334
        outWeight: 0.33333334
      m_PreInfinity: 2
      m_PostInfinity: 2
      m_RotationOrder: 4
    attribute: m_LocalPosition.z
    path: 
    classID: 4
    script: {fileID: 0}
    flags: 0
  m_EulerEditorCurves:
  - serializedVersion: 2
    curve:
      serializedVersion: 2
      m_Curve: []
      m_PreInfinity: 2
      m_PostInfinity: 2
      m_RotationOrder: 4
    attribute: m_LocalEulerAngles.x
    path: 
    classID: 4
    script: {fileID: 0}
    flags: 0
  - serializedVersion: 2
    curve:
      serializedVersion: 2
      m_Curve: []
      m_PreInfinity: 2
      m_PostInfinity: 2
      m_RotationOrder: 4
    attribute: m_LocalEulerAngles.y
    path: 
    classID: 4
    script: {fileID: 0}
    flags: 0
  - serializedVersion: 2
    curve:
      serializedVersion: 2
      m_Curve: []
      m_PreInfinity: 2
      m_PostInfinity: 2
      m_RotationOrder: 4
    attribute: m_LocalEulerAngles.z
    path: 
    classID: 4
    script: {fileID: 0}
    flags: 0
  m_HasGenericRootTransform: 1
  m_HasMotionFloatCurves: 0
  m_Events: []
