%YAML 1.1
%TAG !u! tag:unity3d.com,2011:
--- !u!114 &11400000
MonoBehaviour:
  m_ObjectHideFlags: 0
  m_CorrespondingSourceObject: {fileID: 0}
  m_PrefabInstance: {fileID: 0}
  m_PrefabAsset: {fileID: 0}
  m_GameObject: {fileID: 0}
  m_Enabled: 1
  m_EditorHideFlags: 0
  m_Script: {fileID: 11500000, guid: c93ec8db7f0b3c241b70fad30a511b1c, type: 3}
  m_Name: Bandages
  m_EditorClassIdentifier: 
  image: {fileID: 21300000, guid: be50ecf6846760746a40fd3363f0ef11, type: 3}
  ExamineText: Bandages
  actionMenu: 1
  actionButtons: 01010001
  dialogue:
    sentences:
    - whoIsTalking: 
      whoIsTalkingFace: {fileID: 0}
      onEndSentence:
        m_PersistentCalls:
          m_Calls: []
      text: Clean gauze and a bottle of disinfectant.
    OnDialogueOver:
      m_PersistentCalls:
        m_Calls: []
