%YAML 1.1
%TAG !u! tag:unity3d.com,2011:
--- !u!114 &11400000
MonoBehaviour:
  m_ObjectHideFlags: 0
  m_CorrespondingSourceObject: {fileID: 0}
  m_PrefabInstance: {fileID: 0}
  m_PrefabAsset: {fileID: 0}
  m_GameObject: {fileID: 0}
  m_Enabled: 1
  m_EditorHideFlags: 0
  m_Script: {fileID: 11500000, guid: c93ec8db7f0b3c241b70fad30a511b1c, type: 3}
  m_Name: EMPTY
  m_EditorClassIdentifier: 
  image: {fileID: 0}
  ExamineText: 'TESTO ESAMINA QUI '
  actionMenu: 0
  actionButtons: 00000001
  dialogue:
    sentences: []
    OnDialogueOver:
      m_PersistentCalls:
        m_Calls: []
