%YAML 1.1
%TAG !u! tag:unity3d.com,2011:
--- !u!114 &11400000
MonoBehaviour:
  m_ObjectHideFlags: 0
  m_CorrespondingSourceObject: {fileID: 0}
  m_PrefabInstance: {fileID: 0}
  m_PrefabAsset: {fileID: 0}
  m_GameObject: {fileID: 0}
  m_Enabled: 1
  m_EditorHideFlags: 0
  m_Script: {fileID: 11500000, guid: c93ec8db7f0b3c241b70fad30a511b1c, type: 3}
  m_Name: Small Vial
  m_EditorClassIdentifier: 
  image: {fileID: 21300000, guid: 1f5dc0e4904bb4b4b9c962797d36804f, type: 3}
  ExamineText: Small Vial
  actionMenu: 1
  actionButtons: 01000001
  dialogue:
    sentences:
    - whoIsTalking: 
      whoIsTalkingFace: {fileID: 0}
      onEndSentence:
        m_PersistentCalls:
          m_Calls: []
      text: An empty vial with some clear liquid. Smells chemically.
    OnDialogueOver:
      m_PersistentCalls:
        m_Calls: []
