%YAML 1.1
%TAG !u! tag:unity3d.com,2011:
--- !u!114 &11400000
MonoBehaviour:
  m_ObjectHideFlags: 0
  m_CorrespondingSourceObject: {fileID: 0}
  m_PrefabInstance: {fileID: 0}
  m_PrefabAsset: {fileID: 0}
  m_GameObject: {fileID: 0}
  m_Enabled: 1
  m_EditorHideFlags: 0
  m_Script: {fileID: 11500000, guid: 5af5e9250bbb5e44f9b0a3e1c7894389, type: 3}
  m_Name: Mole
  m_EditorClassIdentifier: 
  Name: Mole
  face: {fileID: 21300000, guid: fedc55b7110e66c4dbabe886e6348175, type: 3}
